"GROUP_TABLE_ID","TRANSACTION_OBJECT","GTABLE","ID_FIELD","DATA_FIELD","STATUS","TABLE_LABEL","SEARCH_TABLE","SEARCH_FIELD","EXTRA_WHERE","EXTRA_FROM","GROUP_WIDTH","GROUP_TYPE","DISPLAY_ORDER","DATAWINDOW","GRP_SEARCH_TABLE","CAN_ADD_FICTIVE","ID_DISPLAY_FIELD","ID_FIELD_TYPE","DISP_ID_FIELD_TYPE","FATHER_ID","HINT_MESSAGE","CUST_CODE_FIELD","MDP_SEARCH_TABLE","IS_HIERARCHY_LEVEL","SOURCE_TABLE","IS_RANKING","ICON_PATH","IS_UNLINKED","BASE_LEVEL","IS_ANALYTICAL","ICON_URL","NETWORK_LEVEL","ALIAS","TABLE_ID","BM_VALIDATED","MODIFIED_BY","APPLICATION_ID"
4366,"","contract_group","contract_group_id","contract_group_desc","ACTIVE","Contract","CONTRACT_LINE","contract_group_id","","",10,"6",,"","",,"contract_group_id","num","num",4261,"","contract_group_code","CONTRACT_LINE",,,,"D:\Oracle\DemantraDev\Collaborator\demantra\portal\icons\promotion_ICO.gif",0,2328,0,"promotion_ICO.gif",,,4526,1,"BM","CBFFD3777C8D405794E104E0E1906D5D"
366,"","t_ep_L_ATT_6","t_ep_L_ATT_6_EP_ID","l_att_6_desc","ACTIVE","Sales Office","location","t_ep_L_ATT_6_ep_id","","",20,"2",,"","t_ep_L_ATT_6",,"L_ATT_6","num","char",426,"","L_ATT_6","mdp_matrix",0,,,"",0,,0,"",,,4395,1,"BM","GROUP_TABLE:t_ep_l_att_6"
367,"","t_ep_L_ATT_8","t_ep_L_ATT_8_EP_ID","l_att_8_desc","ACTIVE","Customer Status","location","t_ep_L_ATT_8_ep_id","","",20,"2",,"","t_ep_L_ATT_8",,"t_ep_L_ATT_8_ep_id","num","num",426,"","L_ATT_8","mdp_matrix",0,,,"",0,,0,"",,,4396,1,"BM","GROUP_TABLE:t_ep_l_att_8"
368,"","t_ep_L_ATT_10","t_ep_L_ATT_10_EP_ID","l_att_10_desc","ACTIVE","Country","location","t_ep_L_ATT_10_ep_id","","",20,"2",,"","t_ep_L_ATT_10",,"L_ATT_10","num","char",426,"","L_ATT_10","mdp_matrix",0,,,"",0,,0,"",,,4397,1,"BM","GROUP_TABLE:t_ep_l_att_10"
369,"","t_ep_L_ATT_9","t_ep_L_ATT_9_EP_ID","l_att_9_desc","ACTIVE","Cust Scan Tag (Unused)","location","t_ep_L_ATT_9_ep_id","","",20,"2",,"","t_ep_L_ATT_9",,"t_ep_L_ATT_9_ep_id","num","num",426,"","L_ATT_9","mdp_matrix",0,,,"",0,,0,"",,,4398,1,"BM","GROUP_TABLE:t_ep_l_att_9"
370,"","t_ep_L_ATT_7","t_ep_L_ATT_7_EP_ID","l_att_7_desc","DISABLED","Store Revenue Class","location","t_ep_L_ATT_7_ep_id","","",20,"2",,"","t_ep_L_ATT_7",,"t_ep_L_ATT_7_ep_id","num","num",426,"","L_ATT_7","mdp_matrix",0,,,"",0,,0,"",,,,1,"BM","GROUP_TABLE:t_ep_l_att_7"
371,"","t_ep_L_ATT_5","t_ep_L_ATT_5_EP_ID","l_att_5_desc","ACTIVE","Unused","location","t_ep_L_ATT_5_ep_id","","",20,"2",,"","t_ep_L_ATT_5",,"t_ep_L_ATT_5_ep_id","num","num",426,"","L_ATT_5","mdp_matrix",0,,,"",0,,0,"",,,4399,1,"BM","GROUP_TABLE:t_ep_l_att_5"
372,"","t_ep_L_ATT_3","t_ep_L_ATT_3_EP_ID","l_att_3_desc","DISABLED","Store Type","location","t_ep_L_ATT_3_ep_id","","",20,"2",,"","t_ep_L_ATT_3",,"t_ep_L_ATT_3_ep_id","num","num",426,"","L_ATT_3","mdp_matrix",0,,,"",0,,0,"",,,,1,"BM","GROUP_TABLE:t_ep_l_att_3"
1,"","LOCATION","LOCATION_ID","DESCRIPTION","DISABLED","Lowest Location Level","LOCATION","LOCATION_ID","","",20,"2",,"","LOCATION",,"LOCATION_id","num","num",0,"","LOCATION_ID","LOCATION",0,,,"",0,,0,"",,,4327,1,"BM","GROUP_TABLE:location"
3,"","FORE_LEVEL","DO_FORE","FORE_DESC","ACTIVE","Forecast User Status","mdp_matrix","DO_FORE","","",20,"3",,"","FORE_LEVEL",,"fore_level_code","num","num",0,"","fore_level_code","mdp_matrix",0,,,"",0,,0,"",,,4374,1,"BM","GROUP_TABLE:fore_level"
4,"","AGGRI_LEVEL","DO_AGGRI","AGGRI_DESC","ACTIVE","Aggregation User Status","mdp_matrix","DO_AGGRI","","",20,"3",,"","AGGRI_LEVEL",,"DO_AGGRI","num","num",0,"","AGGRI_LEVEL_CODE","mdp_matrix",0,,,"",0,,0,"",,,4375,1,"BM","GROUP_TABLE:aggri_level"
5,"","PRED_STATUS_LEVEL","PREDICTION_STATUS","PRED_STATUS_DESC","ACTIVE","Forecast System Status","mdp_matrix","PREDICTION_STATUS","","",20,"3",,"","PRED_STATUS_LEVEL",,"PREDICTION_STATUS","num","num",0,"","PRED_STATUS_LEVEL_CODE","mdp_matrix",0,,,"",0,,0,"",,,4376,1,"BM","GROUP_TABLE:pred_status_level"
6,"","t_ep_p4","t_ep_p4_EP_ID","p4_desc","ACTIVE","Sales Org","items","t_ep_p4_ep_id","","",20,"1",,"","t_ep_p4",,"p4","num","char",7,"","p4","mdp_matrix",0,,,"",0,,0,"",,,4454,1,"BM","GROUP_TABLE:t_ep_p4"
7,"","t_ep_p3","t_ep_p3_EP_ID","p3_desc","ACTIVE","Distribution Channel","items","t_ep_p3_ep_id","","",20,"1",,"","t_ep_p3",,"p3","num","char",8,"","p3","mdp_matrix",0,,,"",0,,0,"",,,4455,1,"BM","GROUP_TABLE:t_ep_p3"
9,"","t_ep_p2a2","t_ep_p2a2_EP_ID","p2a2_desc","ACTIVE","Unused 3","items","t_ep_p2a2_ep_id","","",20,"1",,"","t_ep_p2a2",,"t_ep_p2a2_ep_id","num","num",10,"","p2a2","mdp_matrix",0,,,"",0,,0,"",,,4377,1,"BM","GROUP_TABLE:t_ep_p2a2"
10,"","t_ep_p2a1","t_ep_p2a1_EP_ID","p2a1_desc","ACTIVE","Product Category","items","t_ep_p2a1_ep_id","","",20,"1",,"","t_ep_p2a1",,"p2a1","char","char",11,"","p2a1","mdp_matrix",0,,,"",0,,0,"",,,4378,1,"BM","GROUP_TABLE:t_ep_p2a1"
12,"","t_ep_p2b","t_ep_p2b_EP_ID","p2b_desc","ACTIVE","Promoted Group","items","t_ep_p2b_ep_id","","",15,"1",,"","t_ep_p2b",,"p2b","num","char",424,"","p2b","mdp_matrix",0,,,"",0,,0,"",,,4380,1,"BM","GROUP_TABLE:t_ep_p2b"
13,"","t_ep_p1","t_ep_p1_EP_ID","p1_desc","DISABLED","Unused","items","t_ep_p1_ep_id","","",20,"1",,"","t_ep_p1",,"t_ep_p1_ep_id","num","num",0,"","p1","mdp_matrix",0,,,"",0,,0,"",,,,1,"BM","GROUP_TABLE:t_ep_p1"
14,"","t_ep_ls6","t_ep_ls6_EP_ID","ls6_desc","DISABLED","EBSCompany","location","t_ep_ls6_ep_id","","",15,"2",,"","t_ep_ls6",,"t_ep_ls6_ep_id","num","num",15,"","ls6","mdp_matrix",0,,,"",0,,0,"",,,,1,"BM","GROUP_TABLE:t_ep_ls6"
15,"","t_ep_ls5","t_ep_ls5_EP_ID","ls5_desc","DISABLED","Division dis","location","t_ep_ls5_ep_id","","",20,"2",,"","t_ep_ls5",,"t_ep_ls5_ep_id","num","char",16,"","ls5","mdp_matrix",0,,,"",0,,0,"",,,,1,"BM","GROUP_TABLE:t_ep_ls5"
16,"","t_ep_ls4","t_ep_ls4_EP_ID","ls4_desc","DISABLED","Sales Area (Unused)","location","t_ep_ls4_ep_id","","",20,"2",,"","t_ep_ls4",,"t_ep_ls4_ep_id","num","num",17,"","ls4","mdp_matrix",0,,,"",0,,0,"",,,,1,"BM","GROUP_TABLE:t_ep_ls4"
17,"","t_ep_ls3","t_ep_ls3_EP_ID","ls3_desc","ACTIVE","Key Account D/HO","location","t_ep_ls3_ep_id","","",20,"2",,"","t_ep_ls3",,"t_ep_ls3_ep_id","num","num",18,"","ls3","mdp_matrix",0,,,"",0,,0,"",,,4381,1,"BM","GROUP_TABLE:t_ep_ls3"
469,"","t_ep_e1_it_br_cat_3","t_ep_e1_it_br_cat_3_EP_ID","e1_ib_cat_3_desc","ACTIVE","NPI Flag","mdp_matrix","t_ep_e1_it_br_cat_3_ep_id","","",20,"3",,"","t_ep_e1_it_br_cat_3",,"t_ep_e1_it_br_cat_3_ep_id","num","num",0,"","e1_it_br_cat_3","mdp_matrix",0,,,"",0,,0,"",,,4413,1,"BM","GROUP_TABLE:t_ep_e1_it_br_cat_3"
470,"","t_ep_e1_it_br_cat_4","t_ep_e1_it_br_cat_4_EP_ID","e1_ib_cat_4_desc","ACTIVE","Account Mgr","mdp_matrix","t_ep_e1_it_br_cat_4_ep_id","","",20,"3",,"","t_ep_e1_it_br_cat_4",,"t_ep_e1_it_br_cat_4_ep_id","num","num",0,"","e1_it_br_cat_4","mdp_matrix",0,,,"",0,,0,"",,,4414,1,"BM","GROUP_TABLE:t_ep_e1_it_br_cat_4"
430,"","t_ep_e1_item_cat_4","t_ep_e1_item_cat_4_EP_ID","e1_i_cat_desc_4","ACTIVE","Brand 2","items","t_ep_e1_item_cat_4_ep_id","","",20,"1",,"","t_ep_e1_item_cat_4",,"e1_item_cat_4","char","char",424,"","e1_item_cat_4","mdp_matrix",0,,,"",0,,0,"",,,4405,1,"BM","GROUP_TABLE:t_ep_e1_item_cat_4"
355,"","t_ep_I_ATT_6","t_ep_I_ATT_6_EP_ID","i_att_6_desc","ACTIVE","Tax class. mat.","items","t_ep_I_ATT_6_ep_id","","",20,"1",,"","t_ep_I_ATT_6",,"i_att_6","num","char",424,"","I_ATT_6","mdp_matrix",0,,,"",0,,0,"",,,4457,1,"BM","GROUP_TABLE:t_ep_i_att_6"
359,"","t_ep_I_ATT_7","t_ep_I_ATT_7_EP_ID","i_att_7_desc","DISABLED","t_ep_i_att_7 (Unused)","items","t_ep_I_ATT_7_ep_id","","",20,"1",,"","t_ep_I_ATT_7",,"I_ATT_7","num","char",424,"","I_ATT_7","mdp_matrix",0,,,"",0,,0,"",,,,1,"BM","GROUP_TABLE:t_ep_i_att_7"
2,"","ITEMS","ITEM_ID","ITEM_DESC","DISABLED","Lowest Item Level","ITEMS","ITEM_ID","","",20,"1",,"","ITEMS",,"ITEM_ID","num","num",0,"","ITEM_ID","ITEMS",0,,,"",0,,0,"",,,4326,1,"BM","GROUP_TABLE:items"
8,"","t_ep_p2","t_ep_p2_EP_ID","ps_desc","ACTIVE","Division","items","t_ep_p2_ep_id","","",20,"1",,"","t_ep_p2",,"p2","num","char",424,"","p2","mdp_matrix",0,,,"",0,,0,"",,,4456,1,"BM","GROUP_TABLE:t_ep_p2"
11,"","t_ep_p2a","t_ep_p2a_EP_ID","p2a_desc","ACTIVE","Product Sub Category","items","t_ep_p2a_ep_id","","",12,"1",,"","t_ep_p2a",,"p2a","num","char",424,"","p2a","mdp_matrix",0,,,"",0,,0,"",,,4379,1,"BM","GROUP_TABLE:t_ep_p2a"
520,"","SETTLEMENT","SETTLEMENT_ID","SETTLEMENT_DESC","ACTIVE","Claim","SETTLEMENT","SETTLEMENT_ID","","",10,"6",,"","",,"SETTLEMENT_ID","num","num",0,"","SETTLEMENT_CODE","SETTLEMENT",0,,,"",0,102,0,"settlement.png",,,4351,1,"BM","GROUP_TABLE:settlement"
521,"","SETTLEMENT_INVOICE","INVOICE_ID","INVOICE_DESC","ACTIVE","Invoice","SETTLEMENT","INVOICE_ID","","",,"6",,"","",,"INVOICE_ID","num","num",520,"","INVOICE_CODE","SETTLEMENT",0,,,"",0,102,0,"settlement.png",,,4352,1,"BM","GROUP_TABLE:settlement_invoice"
522,"","GL_CODE","GL_CODE_ID","GL_CODE_DESC","ACTIVE","Account Type","SETTLEMENT","GL_CODE_ID","","",,"6",,"","",,"GL_CODE_ID","num","num",520,"","GL_CODE_CODE","SETTLEMENT",0,,,"",0,102,0,"settlement.png",,,4353,1,"BM","GROUP_TABLE:gl_code"
523,"","SETTLEMENT_STATUS","SETTLEMENT_STATUS_ID","SETTLEMENT_STATUS_DESC","ACTIVE","Claim Status","SETTLEMENT","SETTLEMENT_STATUS_ID","","",,"6",,"","",,"SETTLEMENT_STATUS_ID","num","num",520,"","SETTLEMENT_STATUS_CODE","SETTLEMENT",0,,,"",0,102,0,"settlement.png",,,4354,1,"BM","GROUP_TABLE:settlement_status"
524,"","SETTLEMENT_TYPE","SETTLEMENT_TYPE_ID","SETTLEMENT_TYPE_DESC","ACTIVE","Type","SETTLEMENT","SETTLEMENT_TYPE_ID","","",,"6",,"","",,"SETTLEMENT_TYPE_ID","num","num",520,"","SETTLEMENT_TYPE_CODE","SETTLEMENT",0,,,"",0,102,0,"settlement.png",,,4355,1,"BM","GROUP_TABLE:settlement_type"
525,"","PROMOTION","PROMOTION_ID","PROMOTION_DESC","ACTIVE","Linked Promotion","SETTLEMENT","PROMOTION_ID","","",20,"6",,"","",,"PROMOTION_ID","num","num",520,"","PROMOTION_CODE","SETTLEMENT",0,,,"",0,102,0,"settlement.png",,232,4337,1,"BM","GROUP_TABLE:promotion232"
526,"","SETTLEMENT","SETTLEMENT_ID","SETTLEMENT_DESC","ACTIVE","SettlementAlias","SETTLEMENT","SETTLEMENT_ID","proposed_match.promo_id = promotion_data.promotion_id and proposed_match.settlement_id = settlement.settlement_id","proposed_match",10,"6",,"","",,"SETTLEMENT_ID","num","num",,"","SETTLEMENT_CODE","SETTLEMENT",0,,,"",1,1,0,"settlement.png",,520,4351,1,"BM","GROUP_TABLE:settlement566"
540,"","days_outstanding","days_outstanding_id","days_outstanding_desc","ACTIVE","Days Outstanding","SETTLEMENT","days_outstanding_id","","",16,"6",999,"","",,"days_outstanding_id","num","num",520,"","days_outstanding_code","SETTLEMENT",,,,"",0,102,0,"settlement.png",,,4356,1,"BM","GROUP_TABLE:days_outstanding"
292,"","Optimization_Goal","Optimization_Goal_id","Optimization_Goal_desc","ACTIVE","Optimization Goal","PROMOTION","Optimization_Goal_id","","",,"6",,"","",,"Optimization_Goal_id","num","num",233,"","Optimization_Goal_code","PROMOTION_MATRIX",,,,"",0,1,0,"promotion.png",,,4344,1,"BM","GROUP_TABLE:optimization_goal"
527,"","CHECK_REQUEST","CHECK_REQUEST_ID","CHECK_REQUEST_DESC","ACTIVE","Check Request","CHECK_REQUEST","CHECK_REQUEST_ID","","",10,"6",,"","check_request",,"CHECK_REQUEST_ID","num","num",0,"","CHECK_REQUEST_CODE","CHECK_REQUEST",0,,,"",0,102,0,"",,,4333,1,"BM","GROUP_TABLE:check_request"
232,"","PROMOTION","PROMOTION_ID","PROMOTION_DESC","ACTIVE","Promotion","PROMOTION","PROMOTION_ID","","",22,"6",,"","",,"PROMOTION_ID","num","num",0,"","PROMOTION_CODE","PROMOTION_MATRIX",0,,,".\bitmaps\promotion_ICO.gif",0,1,1,"promotion.png",,,4337,1,"BM","GROUP_TABLE:promotion"
233,"","SCENARIO","SCENARIO_ID","SCENARIO_DESC","ACTIVE","Scenario","PROMOTION","SCENARIO_ID","","",15,"6",,"","",,"SCENARIO_ID","num","num",232,"","SCENARIO_CODE","PROMOTION_MATRIX",0,,,"",0,1,0,"promotion.png",,,4341,1,"BM","GROUP_TABLE:scenario"
234,"","PLAN","PLAN_ID","PLAN_DESC","ACTIVE","Plans","PROMOTION","PLAN_ID","","",20,"6",,"","",,"PLAN_ID","num","num",233,"","PLAN_CODE","PROMOTION_MATRIX",0,,,"",0,1,0,"promotion.png",,,4342,1,"BM","GROUP_TABLE:plan"
235,"","PROMOTION_TYPE","PROMOTION_TYPE_ID","PROMOTION_TYPE_DESC","ACTIVE","Promotion Type","PROMOTION","PROMOTION_TYPE_ID","","",15,"6",,"","",,"PROMOTION_TYPE_ID","num","num",232,"","PROMOTION_TYPE_CODE","PROMOTION_MATRIX",0,,,".\bitmaps\promotion_ICO.gif",0,1,0,"promotion.png",,,4343,1,"BM","GROUP_TABLE:promotion_type"
236,"","COMPETITION_ITEM","COMPETITION_ITEM_ID","COMPETITION_ITEM_DESC","ACTIVE","Competition Item","MDP_MATRIX","COMPETITION_ITEM_ID","","",10,"3",,"","",,"COMPETITION_ITEM_ID","num","num",0,"","COMPETITION_ITEM_CODE","MDP_MATRIX",0,,,"",0,,0,"",,,4334,1,"BM","GROUP_TABLE:competition_item"
237,"","COMPETITION_LOCATION","COMPETITION_LOCATION_ID","COMPETITION_LOCATION_DESC","ACTIVE","Competition Location","MDP_MATRIX","COMPETITION_LOCATION_ID","","",10,"3",,"","",,"COMPETITION_LOCATION_ID","num","num",0,"","COMPETITION_LOCATION_CODE","MDP_MATRIX",0,,,"",0,,0,"",,,4335,1,"BM","GROUP_TABLE:competition_location"
312,"","promotion_stat","promotion_stat_id","promotion_stat_desc","ACTIVE","Promotion Status","PROMOTION","promotion_stat_id","","",,"6",,"","",,"promotion_stat_id","num","num",232,"","promotion_stat_code","PROMOTION_MATRIX",,,,".\bitmaps\promotion_ICO.gif",0,1,0,"promotion.png",,,4345,1,"BM","GROUP_TABLE:promotion_stat"
960,"","t_ep_dc_test","t_ep_dc_test_id","t_ep_dc_test_desc","ACTIVE","Customer Promo Ref","mdp_matrix","t_ep_dc_test_id","","",,"3",,"","",,"t_ep_dc_test_code","num","char",0,"","t_ep_dc_test_code","mdp_matrix",,,,"",0,,0,"",,,4432,1,"BM","GROUP_TABLE:t_ep_dc_test"
362,"","t_ep_I_ATT_1","t_ep_I_ATT_1_EP_ID","i_att_1_desc","ACTIVE","Material Description","items","t_ep_I_ATT_1_ep_id","","",20,"1",,"","t_ep_I_ATT_1",,"i_att_1","num","char",424,"","I_ATT_1","mdp_matrix",0,,,"",0,,0,"",,,4392,1,"BM","GROUP_TABLE:t_ep_i_att_1"
471,"","t_ep_e1_it_br_cat_5","t_ep_e1_it_br_cat_5_EP_ID","e1_ib_cat_5_desc","ACTIVE","Avg Exception","mdp_matrix","t_ep_e1_it_br_cat_5_ep_id","","",20,"3",,"","t_ep_e1_it_br_cat_5",,"t_ep_e1_it_br_cat_5_ep_id","num","num",0,"","e1_it_br_cat_5","mdp_matrix",0,,,"",0,,0,"",,,4415,1,"BM","GROUP_TABLE:t_ep_e1_it_br_cat_5"
375,"","t_ep_fiscal_period","t_ep_fiscal_period_id","t_ep_fiscal_period_desc","ACTIVE","Fiscal Quarter","inputs","t_ep_fiscal_period_id","","",,"5",,"","",,"t_ep_fiscal_period_id","num","num",0,"","t_ep_fiscal_period_code","inputs",,,,"",0,,0,"",,,4368,1,"BM","GROUP_TABLE:t_ep_fiscal_quarter"
424,"","t_ep_item","t_ep_item_EP_ID","dm_item_desc","ACTIVE","Material","items","t_ep_item_ep_id","","",20,"1",,"","t_ep_item",,"item","num","char",0,"","item","mdp_matrix",0,,,"",0,,0,"",,,4400,1,"BM","GROUP_TABLE:t_ep_item"
425,"","t_ep_organization","t_ep_organization_EP_ID","dm_org_desc","DISABLED","Organisation S","location","t_ep_organization_ep_id","","",20,"2",,"","t_ep_organization",,"t_ep_organization_ep_id","num","num",0,"","organization","mdp_matrix",0,,,"",0,,0,"",,,,1,"BM","GROUP_TABLE:t_ep_organization"
492,"","t_ep_ebs_zone","t_ep_ebs_zone_EP_ID","ebs_zone_desc","ACTIVE","Banner Group","location","t_ep_ebs_zone_ep_id","","",20,"2",,"","t_ep_ebs_zone",,"ebs_zone","char","char",493,"","ebs_zone","mdp_matrix",0,,,"",0,,0,"",,,4428,1,"BM","GROUP_TABLE:t_ep_ebs_zone"
426,"","t_ep_site","t_ep_site_EP_ID","dm_site_desc","ACTIVE","Customer Num","location","t_ep_site_ep_id","","",20,"2",,"","t_ep_site",,"site","char","char",0,"","site","mdp_matrix",0,,,"",0,,0,"",,,4401,1,"BM","GROUP_TABLE:t_ep_site"
427,"","t_ep_e1_item_cat_1","t_ep_e1_item_cat_1_EP_ID","e1_i_cat_desc_1","ACTIVE","Coles Category (Unused)","items","t_ep_e1_item_cat_1_ep_id","","",20,"1",,"","t_ep_e1_item_cat_1",,"t_ep_e1_item_cat_1_ep_id","num","num",424,"","e1_item_cat_1","mdp_matrix",0,,,"",0,,0,"",,,4402,1,"BM","GROUP_TABLE:t_ep_e1_item_cat_1"
428,"","t_ep_e1_item_cat_2","t_ep_e1_item_cat_2_EP_ID","e1_i_cat_desc_2","ACTIVE","Influence Group (Unused)","items","t_ep_e1_item_cat_2_ep_id","","",20,"1",,"","t_ep_e1_item_cat_2",,"t_ep_e1_item_cat_2_ep_id","num","num",424,"","e1_item_cat_2","mdp_matrix",0,,,"",0,,0,"",,,4403,1,"BM","GROUP_TABLE:t_ep_e1_item_cat_2"
429,"","t_ep_e1_item_cat_3","t_ep_e1_item_cat_3_EP_ID","e1_i_cat_desc_3","ACTIVE","Commercial Agreement","items","t_ep_e1_item_cat_3_ep_id","","",20,"1",,"","t_ep_e1_item_cat_3",,"e1_item_cat_3","num","char",424,"","e1_item_cat_3","mdp_matrix",0,,,"",0,,0,"",,,4404,1,"BM","GROUP_TABLE:t_ep_e1_item_cat_3"
20,"","t_ep_lr2a","t_ep_lr2a_EP_ID","lr2a_desc","ACTIVE","Sub-Account (Unused)","location","t_ep_lr2a_ep_id","","",15,"2",,"","t_ep_lr2a",,"lr2a","num","char",426,"","lr2a","mdp_matrix",0,,,"",0,,0,"",,,4383,1,"BM","GROUP_TABLE:t_ep_lr2a"
498,"","t_ep_e1_cust_city","t_ep_e1_cust_city_EP_ID","e1_cust_city_desc","ACTIVE","Customer Level 2","location","t_ep_e1_cust_city_ep_id","","",20,"2",,"","t_ep_e1_cust_city",,"e1_cust_city","num","char",426,"","e1_cust_city","mdp_matrix",0,,,"",0,,0,"",,,4431,1,"BM","GROUP_TABLE:t_ep_e1_cust_city"
529,"","t_ep_ebs_customer","t_ep_ebs_customer_ep_id","ebs_customer_desc","ACTIVE","Invoice Customer Level 3","SETTLEMENT","t_ep_ebs_customer_ep_id","","",20,"6",,"","t_ep_ebs_customer",,"ebs_customer","num","char",521,"","ebs_customer","SETTLEMENT",0,,,"",0,102,0,"settlement.png",,490,4426,1,"BM","GROUP_TABLE:t_ep_ebs_customer490"
900,"","settlement_owner","settlement_owner_id","settlement_owner_desc","ACTIVE","Owner","SETTLEMENT","settlement_owner_id","","",8,"6",2,"","",,"settlement_owner_id","num","num",520,"","settlement_owner_code","SETTLEMENT",,,,"",0,102,0,"settlement.png",,,4357,1,"BM","GROUP_TABLE:settlement_owner"
423,"","CUSTOMER_TYPE","CUSTOMER_TYPE_ID","CUSTOMER_TYPE_DESC","DISABLED","Customer Type","LOCATION","CUSTOMER_TYPE_ID","","",10,"2",,"","",,"CUSTOMER_TYPE_ID","num","num",21,"","CUSTOMER_TYPE_CODE","MDP_MATRIX",0,,,"",0,,0,"",,,,1,"BM","GROUP_TABLE:customer_type"
373,"","t_ep_fiscal_wk","t_ep_fiscal_wk_id","t_ep_fiscal_wk_desc","ACTIVE","Fiscal Wk","inputs","t_ep_fiscal_wk_id","","",,"5",,"","",,"t_ep_fiscal_wk_id","num","num",0,"","t_ep_fiscal_wk_code","inputs",,,,"",0,,0,"",,,4367,1,"BM","GROUP_TABLE:t_ep_fiscal_wk"
451,"","t_ep_e1_cust_ctry","t_ep_e1_cust_ctry_EP_ID","e1_cust_ctry_desc","ACTIVE","Cust Pricing Procedure","location","t_ep_e1_cust_ctry_ep_id","","",20,"2",,"","t_ep_e1_cust_ctry",,"e1_cust_ctry","num","char",426,"","e1_cust_ctry","mdp_matrix",0,,,"",0,,0,"",,,4409,1,"BM","GROUP_TABLE:t_ep_e1_cust_ctry"
486,"","t_ep_ebs_prod_cat","t_ep_ebs_prod_cat_EP_ID","ebs_prod_cat_desc","ACTIVE","Pack 1","items","t_ep_ebs_prod_cat_ep_id","","",20,"1",,"","t_ep_ebs_prod_cat",,"ebs_prod_cat","char","char",424,"","ebs_prod_cat","mdp_matrix",0,,,"",0,,0,"",,,4423,1,"BM","GROUP_TABLE:t_ep_ebs_prod_cat"
18,"","t_ep_ls2","t_ep_ls2_EP_ID","ls2_desc","ACTIVE","Key Account District D/HO","location","t_ep_ls2_ep_id","","",20,"2",,"","t_ep_ls2",,"t_ep_ls2_ep_id","num","num",19,"","ls2","mdp_matrix",0,,,"",0,,0,"",,,4382,1,"BM","GROUP_TABLE:t_ep_ls2"
19,"","t_ep_ls1","t_ep_ls1_EP_ID","ls1_desc","DISABLED","Engine Customer","location","t_ep_ls1_ep_id","","",20,"2",,"","t_ep_ls1",,"t_ep_ls1_ep_id","num","num",0,"","ls1","mdp_matrix",0,,,"",0,,0,"",,,,1,"BM","GROUP_TABLE:t_ep_ls1"
487,"","t_ep_ebs_prod_family","t_ep_ebs_prod_family_EP_ID","ebs_prod_fmly_desc","ACTIVE","Originator","items","t_ep_ebs_prod_family_ep_id","","",20,"1",,"","t_ep_ebs_prod_family",,"ebs_prod_family","num","char",424,"","ebs_prod_family","mdp_matrix",0,,,"",0,,0,"",,,4424,1,"BM","GROUP_TABLE:t_ep_ebs_prod_family"
488,"","t_ep_ebs_demand_class","t_ep_ebs_demand_class_EP_ID","ebs_demand_cls_desc","DISABLED","Demand Class (Unused)","items","t_ep_ebs_demand_class_ep_id","","",20,"1",,"","t_ep_ebs_demand_class",,"t_ep_ebs_demand_class_ep_id","num","num",0,"","ebs_demand_class","mdp_matrix",0,,,"",0,,0,"",,,,1,"BM","GROUP_TABLE:t_ep_ebs_demand_class"
493,"","t_ep_ebs_tp_zone","t_ep_ebs_tp_zone_EP_ID","ebs_tp_zone_desc","ACTIVE","Sub Banner","location","t_ep_ebs_tp_zone_ep_id","","",20,"2",,"","t_ep_ebs_tp_zone",,"ebs_tp_zone","char","char",426,"","ebs_tp_zone","mdp_matrix",0,,,"",0,,0,"",,,4429,1,"BM","GROUP_TABLE:t_ep_ebs_tp_zone"
494,"","t_ep_ebs_legal_entity","t_ep_ebs_legal_entity_EP_ID","ebs_legal_ent_desc","DISABLED","Legal Entity","location","t_ep_ebs_legal_entity_ep_id","","",20,"2",,"","t_ep_ebs_legal_entity",,"t_ep_ebs_legal_entity_ep_id","num","num",425,"","ebs_legal_entity","mdp_matrix",0,,,"",0,,0,"",,,,1,"BM","GROUP_TABLE:t_ep_ebs_legal_entity"
495,"","t_ep_ebs_bus_group","t_ep_ebs_bus_group_EP_ID","ebs_bus_group_desc","DISABLED","Bus Group","location","t_ep_ebs_bus_group_ep_id","","",20,"2",,"","t_ep_ebs_bus_group",,"t_ep_ebs_bus_group_ep_id","num","num",496,"","ebs_bus_group","mdp_matrix",0,,,"",0,,0,"",,,,1,"BM","GROUP_TABLE:t_ep_ebs_bus_group"
496,"","t_ep_ebs_oper_unit","t_ep_ebs_oper_unit_EP_ID","ebs_oper_unit_desc","DISABLED","Bus Group State","location","t_ep_ebs_oper_unit_ep_id","","",20,"2",,"","t_ep_ebs_oper_unit",,"t_ep_ebs_oper_unit_ep_id","num","num",425,"","ebs_oper_unit","mdp_matrix",0,,,"",0,,0,"",,,,1,"BM","GROUP_TABLE:t_ep_ebs_oper_unit"
497,"","t_ep_ebs_sales_ch","t_ep_ebs_sales_ch_EP_ID","ebs_sales_ch_desc","ACTIVE","Direct / Head Office (Unused)","location","t_ep_ebs_sales_ch_ep_id","","",20,"2",,"","t_ep_ebs_sales_ch",,"t_ep_ebs_sales_ch_ep_id","num","num",0,"","ebs_sales_ch","mdp_matrix",0,,,"",0,,0,"",,,4430,1,"BM","GROUP_TABLE:t_ep_ebs_sales_ch"
452,"","t_ep_e1_cust_state","t_ep_e1_cust_state_EP_ID","e1_cust_state_desc","ACTIVE","Recepient Flag","location","t_ep_e1_cust_state_ep_id","","",10,"2",,"","t_ep_e1_cust_state",,"e1_cust_state","num","char",426,"","e1_cust_state","mdp_matrix",0,,,"",0,,0,"",,,4410,1,"BM","GROUP_TABLE:t_ep_e1_cust_state"
453,"","t_ep_e1_it_br_cat_1","t_ep_e1_it_br_cat_1_EP_ID","e1_ib_cat_1_desc","ACTIVE","Confidence Range","mdp_matrix","t_ep_e1_it_br_cat_1_ep_id","","",20,"3",,"","t_ep_e1_it_br_cat_1",,"t_ep_e1_it_br_cat_1_ep_id","num","num",0,"","e1_it_br_cat_1","mdp_matrix",0,,,"",0,,0,"",,,4411,1,"BM","GROUP_TABLE:t_ep_e1_it_br_cat_1"
476,"","t_ep_e1_cust_cat_1","t_ep_e1_cust_cat_1_EP_ID","e1_cust_cat_1_desc","ACTIVE","Unused 8","location","t_ep_e1_cust_cat_1_ep_id","","",20,"2",,"","t_ep_e1_cust_cat_1",,"t_ep_e1_cust_cat_1_ep_id","num","num",426,"","e1_cust_cat_1","mdp_matrix",0,,,"",0,,0,"",,,4416,1,"BM","GROUP_TABLE:t_ep_e1_cust_cat_1"
477,"","t_ep_e1_cust_cat_2","t_ep_e1_cust_cat_2_EP_ID","e1_cust_cat_2_desc","ACTIVE","Tier","location","t_ep_e1_cust_cat_2_ep_id","","",20,"2",,"","t_ep_e1_cust_cat_2",,"e1_cust_cat_2","char","num",426,"","e1_cust_cat_2","mdp_matrix",0,,,"",0,,0,"",,,4417,1,"BM","GROUP_TABLE:t_ep_e1_cust_cat_2"
478,"","t_ep_e1_cust_cat_4","t_ep_e1_cust_cat_4_EP_ID","e1_cust_cat_4_desc","ACTIVE","Customer Level","location","t_ep_e1_cust_cat_4_ep_id","","",20,"2",,"","t_ep_e1_cust_cat_4",,"e1_cust_cat_4","char","char",426,"","e1_cust_cat_4","mdp_matrix",0,,,"",0,,0,"",,,4418,1,"BM","GROUP_TABLE:t_ep_e1_cust_cat_4"
479,"","t_ep_e1_cust_cat_6","t_ep_e1_cust_cat_6_EP_ID","e1_cust_cat_6_desc","ACTIVE","Company (Unused)","location","t_ep_e1_cust_cat_6_ep_id","","",15,"2",,"","t_ep_e1_cust_cat_6",,"t_ep_e1_cust_cat_6_ep_id","num","num",426,"","e1_cust_cat_6","mdp_matrix",0,,,"",0,,0,"",,,4419,1,"BM","GROUP_TABLE:t_ep_e1_cust_cat_6"
483,"","t_ep_e1_cust_cat_7","t_ep_e1_cust_cat_7_EP_ID","e1_cust_cat_7_desc","ACTIVE","Customer Level (Unused)","location","t_ep_e1_cust_cat_7_ep_id","","",20,"2",,"","t_ep_e1_cust_cat_7",,"t_ep_e1_cust_cat_7_ep_id","num","num",426,"","e1_cust_cat_7","mdp_matrix",0,,,"",0,,0,"",,,4420,1,"BM","GROUP_TABLE:t_ep_e1_cust_cat_7"
484,"","t_ep_e1_cust_cat_5","t_ep_e1_cust_cat_5_EP_ID","e1_cust_cat_5_desc","ACTIVE","Bill To (Unused)","location","t_ep_e1_cust_cat_5_ep_id","","",20,"2",,"","t_ep_e1_cust_cat_5",,"t_ep_e1_cust_cat_5_ep_id","num","num",426,"","e1_cust_cat_5","mdp_matrix",0,,,"",0,,0,"",,,4421,1,"BM","GROUP_TABLE:t_ep_e1_cust_cat_5"
464,"","t_ep_e1_it_br_cat_2","t_ep_e1_it_br_cat_2_EP_ID","e1_ib_cat_2_desc","ACTIVE","Customer Product Ref","mdp_matrix","t_ep_e1_it_br_cat_2_ep_id","","",20,"3",,"","t_ep_e1_it_br_cat_2",,"e1_it_br_cat_2","num","char",0,"","e1_it_br_cat_2","mdp_matrix",0,,,"",0,,0,"",,,4412,1,"BM","GROUP_TABLE:t_ep_e1_it_br_cat_2"
485,"","t_ep_e1_cust_cat_3","t_ep_e1_cust_cat_3_EP_ID","e1_cust_cat_3_desc","ACTIVE","ABC Customer (Unused)","location","t_ep_e1_cust_cat_3_ep_id","","",20,"2",,"","t_ep_e1_cust_cat_3",,"t_ep_e1_cust_cat_3_ep_id","num","num",426,"","e1_cust_cat_3","mdp_matrix",0,,,"",0,,0,"",,,4422,1,"BM","GROUP_TABLE:t_ep_e1_cust_cat_3"
489,"","t_ep_ebs_cust_class","t_ep_ebs_cust_class_EP_ID","ebs_cust_class_desc","ACTIVE","Unused11","location","t_ep_ebs_cust_class_ep_id","","",20,"2",,"","t_ep_ebs_cust_class",,"t_ep_ebs_cust_class_ep_id","num","num",490,"","ebs_cust_class","mdp_matrix",0,,,"",0,,0,"",,,4425,1,"BM","GROUP_TABLE:t_ep_ebs_cust_class"
333,"","t_ep_terr_retailer","t_ep_terr_retailer_id","t_ep_terr_retailer_desc","DISABLED","JDE / Retailer","location","t_ep_terr_retailer_id","","",,"2",,"","",,"t_ep_terr_retailer_id","num","num",0,"","t_ep_terr_retailer_code","mdp_matrix",,,,"",0,,0,"",,,,1,"BM","GROUP_TABLE:t_ep_terr_retailer"
490,"","t_ep_ebs_customer","t_ep_ebs_customer_EP_ID","ebs_customer_desc","ACTIVE","Customer Level 3","location","t_ep_ebs_customer_ep_id","","",10,"2",,"","t_ep_ebs_customer",,"ebs_customer","char","char",491,"","ebs_customer","mdp_matrix",0,,,"",0,,0,"",,,4426,1,"BM","GROUP_TABLE:t_ep_ebs_customer"
491,"","t_ep_ebs_account","t_ep_ebs_account_EP_ID","ebs_account_desc","ACTIVE","Customer Level 4","location","t_ep_ebs_account_ep_id","","",30,"2",,"","t_ep_ebs_account",,"ebs_account","char","char",426,"","ebs_account","mdp_matrix",0,,,"",0,,0,"",,,4427,1,"BM","GROUP_TABLE:t_ep_ebs_account"
3960,"","promotion_guidelines","promotion_guidelines_id","promotion_guidelines_desc","ACTIVE","Promotional Program","PROMOTION","promotion_guidelines_id","","",12,"6",4,"","",,"promotion_guidelines_id","num","num",232,"","promotion_guidelines_code","PROMOTION_MATRIX",,,,".\bitmaps\promotion_ICO.gif",0,1,0,"promotion.png",,,4347,1,"BM","GROUP_TABLE:promotion_guidelines"
880,"","t_ep_promo_conflict","t_ep_promo_conflict_id","t_ep_promo_conflict_desc","ACTIVE","Promotion Conflict","PROMOTION","t_ep_promo_conflict_id","","",,"6",,"","",,"t_ep_promo_conflict_id","num","num",232,"","t_ep_promo_conflict_code","PROMOTION_MATRIX",0,,,".\bitmaps\promotion_ICO.gif",0,1,0,"promotion.png",,,4346,1,"BM","GROUP_TABLE:t_ep_promo_conflict"
431,"","t_ep_e1_item_cat_5","t_ep_e1_item_cat_5_EP_ID","e1_i_cat_desc_5","ACTIVE","Item Country (Unused)","items","t_ep_e1_item_cat_5_ep_id","","",20,"1",,"","t_ep_e1_item_cat_5",,"e1_item_cat_5","char","char",424,"","e1_item_cat_5","mdp_matrix",0,,,"",0,,0,"",,,4406,1,"BM","GROUP_TABLE:t_ep_e1_item_cat_5"
432,"","t_ep_e1_item_cat_6","t_ep_e1_item_cat_6_EP_ID","e1_i_cat_desc_6","ACTIVE","Brand 3","items","t_ep_e1_item_cat_6_ep_id","","",20,"1",,"","t_ep_e1_item_cat_6",,"e1_item_cat_6","char","char",424,"","e1_item_cat_6","mdp_matrix",0,,,"",0,,0,"",,,4407,1,"BM","GROUP_TABLE:t_ep_e1_item_cat_6"
433,"","t_ep_e1_item_cat_7","t_ep_e1_item_cat_7_EP_ID","e1_i_cat_desc_7","ACTIVE","Pack 3","items","t_ep_e1_item_cat_7_ep_id","","",20,"1",,"","t_ep_e1_item_cat_7",,"e1_item_cat_7","num","char",424,"","e1_item_cat_7","mdp_matrix",0,,,"",0,,0,"",,,4408,1,"BM","GROUP_TABLE:t_ep_e1_item_cat_7"
437,"","t_ep_e1_br_state","t_ep_e1_br_state_EP_ID","e1_br_state_desc","DISABLED","Branch State","location","t_ep_e1_br_state_ep_id","","",20,"2",,"","t_ep_e1_br_state",,"t_ep_e1_br_state_ep_id","num","num",425,"","e1_br_state","mdp_matrix",0,,,"",0,,0,"",,,,1,"BM","GROUP_TABLE:t_ep_e1_br_state"
438,"","t_ep_e1_br_country","t_ep_e1_br_country_EP_ID","e1_br_country_desc","DISABLED","Branch Country","location","t_ep_e1_br_country_ep_id","","",20,"2",,"","t_ep_e1_br_country",,"t_ep_e1_br_country_ep_id","num","num",425,"","e1_br_country","mdp_matrix",0,,,"",0,,0,"",,,,1,"BM","GROUP_TABLE:t_ep_e1_br_country"
439,"","t_ep_e1_br_cat_1","t_ep_e1_br_cat_1_EP_ID","e1_br_cat_desc_1","DISABLED","Active old (Unused)","location","t_ep_e1_br_cat_1_ep_id","","",20,"2",,"","t_ep_e1_br_cat_1",,"t_ep_e1_br_cat_1_ep_id","num","num",425,"","e1_br_cat_1","mdp_matrix",0,,,"",0,,0,"",,,,1,"BM","GROUP_TABLE:t_ep_e1_br_cat_1"
440,"","t_ep_e1_br_cat_3","t_ep_e1_br_cat_3_EP_ID","e1_br_cat_desc_3","DISABLED","Branch Category Code 3","location","t_ep_e1_br_cat_3_ep_id","","",20,"2",,"","t_ep_e1_br_cat_3",,"t_ep_e1_br_cat_3_ep_id","num","num",425,"","e1_br_cat_3","mdp_matrix",0,,,"",0,,0,"",,,,1,"BM","GROUP_TABLE:t_ep_e1_br_cat_3"
441,"","t_ep_e1_br_cat_5","t_ep_e1_br_cat_5_EP_ID","e1_br_cat_desc_5","DISABLED","Branch Category Code 5","location","t_ep_e1_br_cat_5_ep_id","","",20,"2",,"","t_ep_e1_br_cat_5",,"t_ep_e1_br_cat_5_ep_id","num","num",425,"","e1_br_cat_5","mdp_matrix",0,,,"",0,,0,"",,,,1,"BM","GROUP_TABLE:t_ep_e1_br_cat_5"
444,"","t_ep_e1_br_city","t_ep_e1_br_city_EP_ID","e1_br_city_desc","DISABLED","Branch City","location","t_ep_e1_br_city_ep_id","","",20,"2",,"","t_ep_e1_br_city",,"t_ep_e1_br_city_ep_id","num","num",425,"","e1_br_city","mdp_matrix",0,,,"",0,,0,"",,,,1,"BM","GROUP_TABLE:t_ep_e1_br_city"
448,"","t_ep_e1_br_cat_4","t_ep_e1_br_cat_4_EP_ID","e1_br_cat_desc_4","DISABLED","Branch Category Code 4","location","t_ep_e1_br_cat_4_ep_id","","",20,"2",,"","t_ep_e1_br_cat_4",,"t_ep_e1_br_cat_4_ep_id","num","num",425,"","e1_br_cat_4","mdp_matrix",0,,,"",0,,0,"",,,,1,"BM","GROUP_TABLE:t_ep_e1_br_cat_4"
449,"","t_ep_e1_br_cat_2","t_ep_e1_br_cat_2_EP_ID","e1_br_cat_desc_2","DISABLED","Branch Cat Code 2","location","t_ep_e1_br_cat_2_ep_id","","",20,"2",,"","t_ep_e1_br_cat_2",,"t_ep_e1_br_cat_2_ep_id","num","num",425,"","e1_br_cat_2","mdp_matrix",0,,,"",0,,0,"",,,,1,"BM","GROUP_TABLE:t_ep_e1_br_cat_2"
376,"","t_ep_fiscal_yr","t_ep_fiscal_yr_id","t_ep_fiscal_yr_desc","ACTIVE","Fiscal Year","inputs","t_ep_fiscal_yr_id","","",,"5",,"","",,"t_ep_fiscal_yr_id","num","num",0,"","t_ep_fiscal_yr_code","inputs",,,,"",0,,0,"",,,4369,1,"BM","GROUP_TABLE:t_ep_fiscal_year"
353,"","t_ep_I_ATT_2","t_ep_I_ATT_2_EP_ID","i_att_2_desc","ACTIVE","WW Category (Unused)","items","t_ep_I_ATT_2_ep_id","","",20,"1",,"","t_ep_I_ATT_2",,"I_ATT_2","num","char",424,"","I_ATT_2","mdp_matrix",0,,,"",0,,0,"",,,4386,1,"BM","GROUP_TABLE:t_ep_i_att_2"
354,"","t_ep_I_ATT_4","t_ep_I_ATT_4_EP_ID","i_att_4_desc","ACTIVE","Brand 1","items","t_ep_I_ATT_4_ep_id","","",20,"1",,"","t_ep_I_ATT_4",,"I_ATT_4","num","char",424,"","I_ATT_4","mdp_matrix",0,,,"",0,,0,"",,,4387,1,"BM","GROUP_TABLE:t_ep_i_att_4"
352,"","T_EP_MANUFACTURER","T_EP_MANUFACTURER_id","T_EP_MANUFACTURER_desc","DISABLED","General Manufacturer (Unused)","items","T_EP_MANUFACTURER_id","","",,"1",,"","",,"T_EP_MANUFACTURER_id","num","num",0,"","T_EP_MANUFACTURER_code","mdp_matrix",,,,"",0,,0,"",,,,1,"BM","GROUP_TABLE:t_ep_manufacturer"
500,"","T_ep_LOB","T_ep_LOB_id","T_ep_LOB_desc","DISABLED","Line of Business","location","T_ep_LOB_id","","",,"2",,"","",,"T_ep_LOB_id","num","num",425,"","T_ep_LOB_code","mdp_matrix",,,,"",0,,0,"",,,,1,"BM","GROUP_TABLE:t_ep_lob"
356,"","t_ep_I_ATT_8","t_ep_I_ATT_8_EP_ID","i_att_8_desc","ACTIVE","UOM (Unused)","items","t_ep_I_ATT_8_ep_id","","",20,"1",,"","t_ep_I_ATT_8",,"t_ep_I_ATT_8_ep_id","num","num",424,"","I_ATT_8","mdp_matrix",0,,,"",0,,0,"",,,4388,1,"BM","GROUP_TABLE:t_ep_i_att_8"
357,"","t_ep_I_ATT_10","t_ep_I_ATT_10_EP_ID","i_att_10_desc","ACTIVE","Pack 2","items","t_ep_I_ATT_10_ep_id","","",20,"1",,"","t_ep_I_ATT_10",,"I_ATT_10","num","char",424,"","I_ATT_10","mdp_matrix",0,,,"",0,,0,"",,,4389,1,"BM","GROUP_TABLE:t_ep_i_att_10"
358,"","t_ep_I_ATT_9","t_ep_I_ATT_9_EP_ID","i_att_9_desc","ACTIVE","Manufacturer","items","t_ep_I_ATT_9_ep_id","","",20,"1",,"","t_ep_I_ATT_9",,"I_ATT_9","num","char",424,"","I_ATT_9","mdp_matrix",0,,,"",0,,0,"",,,4390,1,"BM","GROUP_TABLE:t_ep_i_att_9"
360,"","t_ep_I_ATT_5","t_ep_I_ATT_5_EP_ID","i_att_5_desc","ACTIVE","Material Status","items","t_ep_I_ATT_5_ep_id","","",20,"1",,"","t_ep_I_ATT_5",,"i_att_5","num","char",424,"","I_ATT_5","mdp_matrix",0,,,"",0,,0,"",,,4391,1,"BM","GROUP_TABLE:t_ep_i_att_5"
361,"","t_ep_I_ATT_3","t_ep_I_ATT_3_EP_ID","i_att_3_desc","DISABLED","TUN (Unused)","items","t_ep_I_ATT_3_ep_id","","",20,"1",,"","t_ep_I_ATT_3",,"t_ep_I_ATT_3_ep_id","num","num",424,"","I_ATT_3","mdp_matrix",0,,,"",0,,0,"",,,,1,"BM","GROUP_TABLE:t_ep_i_att_3"
21,"","t_ep_lr2","t_ep_lr2_ep_id","lr2_desc","ACTIVE","Unused2","location","t_ep_lr2_ep_id","","",20,"2",,"","t_ep_lr2",,"t_ep_lr2_ep_id","num","num",426,"","lr2","mdp_matrix",0,,,"",0,,0,"",,,4384,1,"BM","GROUP_TABLE:t_ep_lr2"
22,"","t_ep_lr1","t_ep_lr1_EP_ID","lr1_desc","ACTIVE","Supplier","location","t_ep_lr1_ep_id","","",20,"2",,"","t_ep_lr1",,"lr1","num","char",0,"","lr1","mdp_matrix",0,,,"",0,,0,"",,,4385,1,"BM","GROUP_TABLE:t_ep_ebs_supplier"
363,"","t_ep_L_ATT_1","t_ep_L_ATT_1_EP_ID","l_att_1_desc","DISABLED","Store Size","location","t_ep_L_ATT_1_ep_id","","",20,"2",,"","t_ep_L_ATT_1",,"t_ep_L_ATT_1_ep_id","num","num",426,"","L_ATT_1","mdp_matrix",0,,,"",0,,0,"",,,,1,"BM","GROUP_TABLE:t_ep_l_att_1"
364,"","t_ep_L_ATT_2","t_ep_L_ATT_2_EP_ID","l_att_2_desc","ACTIVE","Customer Level 1","location","t_ep_L_ATT_2_ep_id","","",20,"2",,"","t_ep_L_ATT_2",,"L_ATT_2","char","char",426,"","L_ATT_2","mdp_matrix",0,,,"",0,,0,"",,,4393,1,"BM","GROUP_TABLE:t_ep_l_att_2"
365,"","t_ep_L_ATT_4","t_ep_L_ATT_4_EP_ID","l_att_4_desc","ACTIVE","Sub-Acc (Unused)","location","t_ep_L_ATT_4_ep_id","","",20,"2",,"","t_ep_L_ATT_4",,"L_ATT_4","num","char",426,"","L_ATT_4","mdp_matrix",0,,,"",0,,0,"",,,4394,1,"BM","GROUP_TABLE:t_ep_l_att_4"
3981,"","gl_status","gl_exp_claim","gl_status_desc","ACTIVE","Claim Validation Status","SETTLEMENT","gl_exp_claim","","",,"6",,"","",0,"gl_exp_claim","num","num",520,"","gl_status_desc","SETTLEMENT",0,,,"",0,102,0,"settlement.png",,,4358,1,"BM","GROUP_TABLE:gl_status"
4020,"","claim_parent","claim_parent_id","claim_parent_desc","ACTIVE","Claim Group","SETTLEMENT","claim_parent_id","","",,"6",,"","",,"claim_parent_id","num","num",520,"","claim_parent_code","SETTLEMENT",,,,"",0,102,0,"settlement.png",,,4359,1,"BM","3FAE9B937987442598435E7430122A33"
4104,"","Accrual","Accrual_id","Accrual_desc","ACTIVE","Accrual","accrual_data","Accrual_id","","",20,"6",,"","",,"Accrual_id","num","num",0,"","Accrual_code","accrual_matrix",,,,"",0,2311,0,"",,,4360,1,"BM","2ED38ED3F56E49A1B80BAAC35353E2D6"
4080,"","t_ep_fiscal_month","t_ep_fiscal_month_id","t_ep_fiscal_month_desc","ACTIVE","Fiscal Month","inputs","t_ep_fiscal_month_id","","",,"5",,"","",,"t_ep_fiscal_month_id","num","num",0,"","t_ep_fiscal_month_code","inputs",,,,"",0,,0,"",,,4370,1,"BM","0726CA085E6F4813A5256409C656F8D3"
4105,"","accrual_type","accrual_type_id","accrual_type_desc","ACTIVE","AM Activity Type","accrual_matrix","accrual_type_id","","",,"6",,"","",,"accrual_type_id","num","num",4104,"","accrual_type_code","accrual_matrix",,,,"",0,2311,0,"",,,4364,1,"BM","CAFAAAB1E2364F4BB32592F53713BA0F"
4106,"","accrual_stat","accrual_stat_id","accrual_stat_desc","ACTIVE","AM Accrual Status","accrual_matrix","accrual_stat_id","","",,"6",,"","",,"accrual_stat_id","num","num",4104,"","accrual_stat_code","accrual_matrix",,,,"",0,2311,0,"",,,4365,1,"BM","6A010497E1C845F480EBB88147B8BE03"
4120,"","t_ep_out_of_strategy","t_ep_out_of_strategy_id","t_ep_out_of_strategy_desc","ACTIVE","Out of Strategy","PROMOTION","t_ep_out_of_strategy_id","","",,"6",,"","",,"t_ep_out_of_strategy_id","num","num",232,"","t_ep_out_of_strategy_code","PROMOTION_MATRIX",,,,"",0,1,0,"promotion.png",,,4349,1,"BM","E2C62C85C7E742D0B411E7DEAF9AA6B6"
4108,"","accrual_program","accrual_program_id","accrual_program_desc","ACTIVE","Accrual Program","accrual_matrix","accrual_program_id","","",,"6",,"","",,"accrual_program_id","num","num",4104,"","accrual_program_code","accrual_matrix",,,,"",0,2311,0,"",,,4366,1,"BM","3B5E252355BF48D282BE57F7DD38F0EA"
4261,"","contract_line","contract_line_id","contract_line_desc","ACTIVE","Investment Line","CONTRACT_LINE","contract_line_id","","",19,"6",,"","",,"contract_line_id","num","num",0,"","contract_line_code","CONTRACT_LINE",,,,".\bitmaps\promotion_ICO.gif",0,2328,0,"promotion_ICO.gif",,,4436,1,"BM","CF58E90C84EA6470E0439620140A9438"
4340,"","t_cont_lvl1","t_cont_lvl1_ep_id","cont_lvl1_desc","ACTIVE","Cont Customer Level 1","CONTRACT_LINE","t_cont_lvl1_ep_id","","",12,"6",,"","",,"cont_lvl1","char","char",4366,"","cont_lvl1","CONTRACT_LINE",,,,"",0,2328,0,"promotion_ICO.gif",,,4547,1,"BM","763306CFD28B48CB883E4FA8CC8D9C96"
4341,"","t_cont_lvl2","t_cont_lvl2_ep_id","cont_lvl2_desc","ACTIVE","Cont Customer Level 2","CONTRACT_LINE","t_cont_lvl2_ep_id","","",12,"6",,"","",,"cont_lvl2","char","char",4366,"","cont_lvl2","CONTRACT_LINE",,,,"",0,2328,0,"promotion_ICO.gif",,,4548,1,"BM","2FB6ADAE2AF343A08E6003D4138CBA13"
4342,"","t_cont_lvl3","t_cont_lvl3_ep_id","cont_lvl3_desc","ACTIVE","Cont Customer Level 3","CONTRACT_LINE","t_cont_lvl3_ep_id","","",12,"6",,"","",,"cont_lvl3","char","char",4366,"","cont_lvl3","CONTRACT_LINE",,,,"",0,2328,0,"promotion_ICO.gif",,,4549,1,"BM","51A9C8B1DBA547B59965937B5EC035DD"
4343,"","t_cont_lvl4","t_cont_lvl4_ep_id","cont_lvl4_desc","ACTIVE","Cont Customer Level 4","CONTRACT_LINE","t_cont_lvl4_ep_id","","",12,"6",,"","",,"cont_lvl4","char","char",4366,"","cont_lvl4","CONTRACT_LINE",,,,"",0,2328,0,"promotion_ICO.gif",,,4550,1,"BM","A6AF51BFB9D34AD1990FA08A52FFEA02"
4348,"","t_cont_lvl","t_cont_lvl_ep_id","cont_lvl_desc","ACTIVE","Cont Customer Level","CONTRACT_LINE","t_cont_lvl_ep_id","","",15,"6",,"","",,"cont_lvl","char","char",4366,"","cont_lvl","CONTRACT_LINE",0,,,"",0,2328,0,"promotion_ICO.gif",,,4551,1,"BM","AB1B9B6F68F24BEE92F3BDB040C3BC0F"
4263,"","contract","contract_id","contract_desc","ACTIVE","Investment","CONTRACT_LINE","contract_id","","",,"6",,"","",,"contract_id","num","num",4261,"","contract_code","CONTRACT_LINE",,,,".\bitmaps\promotion_ICO.gif",0,2328,0,"promotion_ICO.gif",,,4442,1,"BM","CF831F25E0DB30AFE0439620140A8595"
4264,"","contract_payment","contract_payment_id","contract_payment_desc","ACTIVE","SAP Investment ID","CONTRACT_LINE","contract_payment_id","","",,"6",,"","",,"contract_payment_id","num","num",4261,"","contract_payment_code","CONTRACT_LINE",,,,".\bitmaps\promotion_ICO.gif",0,2328,0,"promotion_ICO.gif",,,4445,1,"BM","CF831F25E0EC30AFE0439620140A8595"
4066,"","promotion_duration","promotion_duration_id","promotion_duration_desc","ACTIVE","Duration","PROMOTION","promotion_duration_id","","",,"6",,"","",,"promotion_duration_id","num","num",235,"","promotion_duration_code","PROMOTION_MATRIX",,,,"",0,1,0,"promotion.png",,,4348,1,"BM","005D7E45355C434EBEECF068A4135682"
4140,"","accruals_type","accruals_type_id","accruals_type_desc","ACTIVE","Accrual Type","PROMOTION","accruals_type_id","","",,"6",,"","",,"accruals_type_id","num","num",232,"","accruals_type_code","PROMOTION_MATRIX",,,,"",0,1,0,"promotion.png",,,4350,1,"BM","431E0D41228B472DBA0C9673015A791F"
4160,"","t_ep_L_ATT_2","t_ep_L_ATT_2_EP_ID","l_att_2_desc","ACTIVE","Invoiced Customer Level 1","SETTLEMENT","t_ep_L_ATT_2_ep_id","","",20,"6",,"","t_ep_L_ATT_2",,"L_ATT_2","num","char",521,"","L_ATT_2","SETTLEMENT",0,,,"",0,102,0,"settlement.png",,364,4393,1,"BM","ED57C453E2424D0696DEDAEE3FB1D633"
4162,"","t_ep_L_ATT_10","t_ep_L_ATT_10_EP_ID","l_att_10_desc","ACTIVE","Invoiced Country","SETTLEMENT","t_ep_L_ATT_10_ep_id","","",20,"6",,"","t_ep_L_ATT_10",,"L_ATT_10","num","char",521,"","L_ATT_10","SETTLEMENT",0,,,"",0,102,0,"settlement.png",,368,4397,1,"BM","F4978C861AD340A68061B748C7B2C85B"
4180,"","t_ep_e1_cust_cat_2","t_ep_e1_cust_cat_2_EP_ID","e1_cust_cat_2_desc","ACTIVE","Invoice Tier","SETTLEMENT","t_ep_e1_cust_cat_2_ep_id","","",20,"6",,"","t_ep_e1_cust_cat_2",,"e1_cust_cat_2","num","char",521,"","e1_cust_cat_2","SETTLEMENT",0,,,"",0,102,0,"settlement.png",,477,4417,1,"BM","9B17D74519454679917C70C1595FB59F"
4200,"","demand_type","demand_type_id","demand_type_desc","ACTIVE","Demand Type LOB","mdp_matrix","demand_type_id","","",,"3",,"","",,"demand_type_id","num","num",0,"","demand_type_code","mdp_matrix",,,,"",0,,0,"",,,4433,1,"BM","1BE4AEF13CE748F59DE1B1216FE8A688"
4267,"","advertising","advertising_id","advertising_desc","ACTIVE","Advertising","PROMOTION","advertising_id","","",,"6",,"","",,"advertising_id","num","num",232,"","advertising_code","PROMOTION_MATRIX",,,,".\bitmaps\promotion_ICO.gif",0,1,0,"promotion.png",,,4458,1,"BM","CF47328233A54138E0439620140AC2DE"
4268,"","gondola_end","gondola_end_id","gondola_end_desc","ACTIVE","Gondola End","PROMOTION","gondola_end_id","","",,"6",,"","",,"gondola_end_id","num","num",232,"","gondola_end_code","PROMOTION_MATRIX",,,,".\bitmaps\promotion_ICO.gif",0,1,0,"promotion.png",,,4461,1,"BM","CF47328233B64138E0439620140AC2DE"
4270,"","promo_tactic","promo_tactic_id","promo_tactic_desc","ACTIVE","Promo Mechanic","PROMOTION","promo_tactic_id","","",,"6",,"","",,"promo_tactic_id","num","num",232,"","promo_tactic_code","PROMOTION_MATRIX",,,,".\bitmaps\promotion_ICO.gif",0,1,0,"promotion.png",,,4467,1,"BM","CF47328233CE4138E0439620140AC2DE"
4320,"","activity","activity_id","activity_desc","ACTIVE","Activity Type","PROMOTION","activity_id","","",,"6",,"","",,"activity_id","num","num",232,"","activity_code","PROMOTION_MATRIX",,,,"D:\Oracle\DemantraDev\Collaborator\demantra\portal\icons\promotion_ICO.gif",0,1,0,"promotion.png",,,4506,1,"BM","F02D018B7AD244D7A3FF240CCB8DB6BE"
4302,"","t_ep_L_ATT_6","t_ep_L_ATT_6_EP_ID","l_att_6_desc","ACTIVE","Invoice Customer Level 2","SETTLEMENT","t_ep_L_ATT_6_ep_id","","",20,"6",,"","t_ep_L_ATT_6",,"L_ATT_6","num","char",521,"","L_ATT_6","SETTLEMENT",,,,"./bitmaps/PROMOTION_ICO.gif",0,102,0,"settlement.png",,366,4395,1,"BM","F70B290F37BE4447A05DBC658896FB73"
4286,"","access_seq","access_seq_id","access_seq_desc","ACTIVE","Access Sequence","CONTRACT_LINE","access_seq_id","","",,"6",,"","",,"access_seq_id","num","num",4261,"","access_seq_code","CONTRACT_LINE",,,,"./bitmaps/PROMOTION_ICO.gif",0,2328,0,"promotion_ICO.gif",,4282,4492,1,"BM","BBEE3E441736421EAEE34D70074BC22C"
4287,"","comp_type","comp_type_id","comp_type_desc","ACTIVE","Investment Type","CONTRACT_LINE","comp_type_id","","",,"6",,"","",,"comp_type_id","num","num",4261,"","comp_type_code","CONTRACT_LINE",,,,"./bitmaps/PROMOTION_ICO.gif",0,2328,0,"promotion_ICO.gif",,4283,4495,1,"BM","C55A04448EEC4CC0B84027CFCC29CDCF"
4288,"","comp_type_seq","comp_type_seq_id","comp_type_seq_desc","ACTIVE","Investment Type Seq","CONTRACT_LINE","comp_type_seq_id","","",,"6",,"","",,"comp_type_seq_id","num","num",4261,"","comp_type_seq_code","CONTRACT_LINE",,,,"./bitmaps/PROMOTION_ICO.gif",0,2328,0,"promotion_ICO.gif",,4281,4489,1,"BM","BD1D40C53C1549D0B795D0D3F0A13350"
4281,"","comp_type_seq","comp_type_seq_id","comp_type_seq_desc","ACTIVE","Invest Type Seq Base","COMP_TYPE_SEQ","comp_type_seq_id","","",,"6",,"","",,"comp_type_seq_id","num","num",0,"","comp_type_seq_code","COMP_TYPE_SEQ",,,,"D:\Oracle\DemantraDev\Collaborator\demantra\portal\icons\promotion_ICO.gif",0,2348,0,"ep_image.gif",,,4489,1,"BM","0E912E63E92140BCB72927C51354FD04"
4282,"","access_seq","access_seq_id","access_seq_desc","ACTIVE","Access Seq Base","COMP_TYPE_SEQ","access_seq_id","","",,"6",,"","",,"access_seq_id","num","num",4281,"","access_seq_code","COMP_TYPE_SEQ",,,,"D:\Oracle\DemantraDev\Collaborator\demantra\portal\icons\promotion_ICO.gif",0,2348,0,"ep_image.gif",,,4492,1,"BM","03562B43DF8B457C8D129C27D3B9EA7B"
4283,"","comp_type","comp_type_id","comp_type_desc","ACTIVE","Invest Type Base","COMP_TYPE_SEQ","comp_type_id","","",,"6",,"","",,"comp_type_id","num","num",4281,"","comp_type_code","COMP_TYPE_SEQ",,,,"D:\Oracle\DemantraDev\Collaborator\demantra\portal\icons\promotion_ICO.gif",0,2348,0,"ep_image.gif",,,4495,1,"BM","05A41AB6304848A49A500CD557C506A3"
4284,"","contract_stat","contract_stat_id","contract_stat_desc","ACTIVE","Investment Status","CONTRACT_LINE","contract_stat_id","","",,"6",,"","",,"contract_stat_id","num","num",4261,"","contract_stat_code","CONTRACT_LINE",,,,"D:\Oracle\DemantraDev\Collaborator\demantra\portal\icons\promotion_ICO.gif",0,2328,0,"promotion_ICO.gif",,,4498,1,"BM","66BA272B5AB04BA9AF993A285CE6D3CA"
4420,"","t_ep_ww_cat","t_ep_ww_cat_id","t_ep_ww_cat_desc","ACTIVE","WW Category","items","t_ep_ww_cat_id","","",20,"1",,"","",,"t_ep_ww_cat_id","num","num",424,"","t_ep_ww_cat_code","mdp_matrix",,,,"D:\Oracle\DemantraDev\Collaborator\demantra\portal\icons\63ICOproduct.gif",0,,0,"item.png",,,4588,1,"BM","667AD48FA2344059808332830E0FF723"
4421,"","t_ep_col_cat","t_ep_col_cat_id","t_ep_col_cat_desc","ACTIVE","Coles Category","items","t_ep_col_cat_id","","",20,"1",,"","",,"t_ep_col_cat_id","num","num",424,"","t_ep_col_cat_code","mdp_matrix",,,,"D:\Oracle\DemantraDev\Collaborator\demantra\portal\icons\63ICOproduct.gif",0,,0,"item.png",,,4591,1,"BM","F370AF34AAB9435C9A6B2763B651421D"
4400,"","promo_multiplier","promo_multiplier_id","promo_multiplier_desc","ACTIVE","Promo Multiplier","PROMOTION","promo_multiplier_id","","",,"6",,"","",,"promo_multiplier_id","num","num",4270,"","promo_multiplier_code","PROMOTION_MATRIX",,,,".\bitmaps\promotion_ICO.gif",0,1,0,"promotion.png",,,4567,1,"BM","854735D7D56544889F7C01DC0F9BB0B5"
4382,"","t_cont_lvl5","t_cont_lvl5_ep_id","cont_lvl5_desc","ACTIVE","Cont Sales Org-Distr-Division","CONTRACT_LINE","t_cont_lvl5_ep_id","","",12,"6",,"","",,"cont_lvl5","char","char",4366,"","cont_lvl5","CONTRACT_LINE",0,,,"",0,2328,0,"promotion_ICO.gif",,,4566,1,"BM","050CF2C6AF2B47D594C44799A06414D7"
4381,"","approve_matrix","approve_matrix_id","approve_matrix_desc","ACTIVE","Approver Hierarchy","APPROVE_MATRIX","approve_matrix_id","","",,"6",,"","",,"approve_matrix_id","num","num",0,"","approve_matrix_code","APPROVE_MATRIX",,,,"D:\Oracle\DemantraDev\Collaborator\demantra\portal\icons\promotion_ICO.gif",0,2368,0,"ep_image.gif",,,4554,1,"BM","5BE28E15F05F4CB3AF9D47867A262A91"
4460,"","claim_remit","claim_remit_id","claim_remit_desc","ACTIVE","Claim Remittance","SETTLEMENT","claim_remit_id","","",,"6",,"","",,"claim_remit_id","num","num",520,"","claim_remit_code","SETTLEMENT",,,,"",0,102,0,"settlement.png",,,4359,1,"BM","GROUP_TABLE:claim_remit"
